MoonCat Owners (65):
0x02535f81854B731A185a765286F7196C6C2b63a4
0x03A101901BaFA5d179aDa227B3fC2c3CEc4cE000
0x0837A63e1EBF44C280B69A27996c1b8921B8D536
0x0bf8897eE519FbFC60E70300c1Eb51Dd439BA5A5
0x0e15A38DDffD01af86601f6fad2d0417fD4f364a
0x1189f4016460543Ac15Cfb71b393c08682073a76
0x1282f34438cB205D201DD357398b85E7729Dd3a2
0x136010E3f217548870B1b0F6Cc8e7fd4CE4F41a6
0x176590c5Bf93da97914c0309Aed1446e30c12cce
0x1833B470dF6Ef6f3DC5d16EBfA7cb82F3974882c
0x19dfdc194Bb5CF599af78B1967dbb3783c590720
0x1BC64307e6DDC620635b862FD2051BE32Bbf26A3
0x1Fe026F91200CaC4dc5aC5Af7814808CEcba1836
0x1cA42bb6d30D13ad38B54BEeB7c0E1eb2abEB5CD
0x25DD159Bb80Ca4216A2693CA0394672e4600578f
0x29ACeD8c01dA564a42db27EFbC5Da3ECE21CC03b
0x36afF65695c9C53a2577411c1E8679d3e75482b1
0x3B849089bc90eA1a05e8d50559DFb16301032470
0x442d9282F4BABF805023697188F54614e46AAc89
0x4548D498460599286CE29BAf9e6B775C19385227
0x48Afb5e5529E150650cf6c8104cd0a9E1d0c9cF8
0x49d62Fa94CB3c05f8EE11c4d7344fe16a76A1f9F
0x4d883824258f7253101f266a23207DCb2Dd45768
0x4e4f94cDFc2030A369126a0b67e7a3a424D8e0c6
0x578038a722280514E4c852A8eee67C4706cE1ED5
0x5a2b6E84fadAa8B23cE782cb6226F87D1ba02416
0x5aC17A180Aa5D441f1f824390d3080ab342F54a6
0x5cE9aD759E41BF1b3dFC1a41Db940A90d7a43460
0x5fed2bE54b4Fd211D460156E3865bFd09e2E651E
0x7032b00CDB88346A8B6622D35E000EFBba92d2D4
0x721AcCb64Ec6436fe49C7c14CebBF220c3104b63
0x7911670881A81F8410d06053d7B3c237cE77b9B4
0x7a48A728d9Fd2d5a55c545c4378E5bA909349E90
0x7bEf79f77C415Cec176a8157438404E2188699a8
0x83e0e18E9fea4Dc39B9B6dC16a48F10872b9f74f
0x8b104344F397aFC33Ee55C743a0FbD7d956201cD
0x910B48C25aFC5b2a998458B62d467D482ECA74AF
0x916986dEEA4A3f031f82b0412F17dBCFF9Fa39d2
0x94e64d925eA0D2ea9b143bCe58A74946cF76Da92
0x99e86304A71df6E3181D4dC594E9da2c7B91E72d
0x9e73B4A89b8D8cd7Db42479f3B9f2E4ea492EAc3
0xA94b3E48215c72266f5006bcA6EE67Fff7122307
0xB4ED9B547c633A34E409dfc74D94Fa4cae3a575C
0xC4979e5876F6C28261f6324f6a98C2812F125d61
0xCa11d10CEb098f597a0CAb28117fC3465991a63c
0xCcBaB306978EfC43e4A3033Dcbcc1D9E56F4F827
0xCe9332f4d44e9Efccc64f88C9bD23E288c0ae5a2
0xCfD0B8eca784AA7262A05263486F6B798Fb70103
0xDA6967678522C04d2D0C362808220D69dBe2Ca31
0xDAE6cA75bB2aFD213E5887513D8b1789122EaAea
0xECC74B40a057eFf408bC9eb3fA90226EF69Df200
0xF7C9a75165B14529fE7EABeCaF54e9648d87C038
0xb09eAa65b2b32959c57bfE5B964Fe0A18eA8fD82
0xb1f3C577b81bed198c144b05B63ae185b313254F
0xcc9DF1E88dAA6670FFAa51C8719eC4233df749aD
0xd13B71E2B9a2e31554dF706a315b29D246393965
0xdf3c160116E1cf9BA92B9c4b9329755CF0D4Fd20
0xe84cC09F6695Cc6b327113d7189b42668B51D918
0xeD47015Bb8080B9399f9D0ddFc427B9Cee2CaAB1
0xefD393F91C713bb713E3F5e00A8b1d3656Eff0B7
0xf0843B54c5d9e78a47fAfAA8F6c6A9a852F03745
0xf1114a5285caF694428db02A452e1c2932aE85AE
0xf942258c095F10EfD0Ca58e1308150FF40239D47
0xfBBe3BB7b863Bd41A674CD0B7C9CcD2672CE2152
0xfDb4FDc4Eb9F7158B9Cae46f78357f3cBC8107C3

Eligible MoonCats (540):
6,9,10,51,77,99,140,156,192,198,237,259,297,301,379,406,419,447,449,452,482,510,522,550,588,671,722,741,787,820,828,898,974,979,1007,1015,1023,1026,1035,1047,1052,1055,1063,1079,1087,1088,1132,1191,1193,1248,1266,1269,1352,1359,1382,1455,1482,1493,1505,1589,1595,1602,1603,1679,1698,1757,1769,1848,2044,2291,2463,2475,2497,2524,2530,2549,2559,2564,2573,2596,2658,2660,2683,2717,2729,2745,2791,2802,2805,2881,2882,2923,3016,3018,3024,3236,3247,3260,3321,3326,3354,3358,3361,3392,3396,3464,3470,3478,3616,3617,3619,3622,3623,3627,3639,3648,3727,3793,3808,3815,3837,3849,3852,3861,3867,3873,3905,3908,3950,3975,3978,3988,4066,4143,4246,4722,4724,4774,4775,5009,5018,5028,5031,5067,5118,5142,5161,5595,5597,5657,5675,5721,5722,5730,5731,5756,5792,5850,5921,5923,5958,6046,6062,6083,6103,6114,6151,6248,6409,6447,6557,6565,6604,6639,6652,6703,6729,6735,6757,6780,6839,6919,6950,6973,7005,7010,7092,7106,7209,7278,7344,7361,7394,7400,7440,7447,7502,7503,7544,7600,7604,7613,7731,7754,7804,7851,7862,7913,7953,7973,7987,8040,8047,8110,8188,8345,8394,8434,8494,8497,8522,8667,8776,8856,8893,8897,8935,9009,9039,9046,9069,9121,9260,9298,9498,9538,9636,9667,9673,9693,9856,10009,10028,10069,10163,10193,10235,10264,10280,10442,10458,10459,10460,10537,10834,10884,10931,10943,10945,10952,11018,11072,11146,11219,11234,11262,11266,11355,11377,11511,11514,11545,11561,11580,11606,11726,11867,11871,11914,12000,12013,12272,12282,12296,12330,12360,12483,12572,12578,12617,12618,12621,12673,12737,12816,12834,12847,12863,12978,13042,13085,13238,13287,13293,13355,13379,13396,13466,13522,13534,13553,13591,13613,13728,13858,14012,14038,14049,14103,14155,14195,14251,14327,14391,14421,14487,14654,14670,14849,14857,14937,14980,14997,15017,15222,15264,15310,15350,15425,15426,15453,15562,15563,15593,15673,15695,15698,15751,15778,15815,15852,15991,16012,16099,16159,16267,16300,16341,16398,16407,16621,16654,16681,16683,16698,16737,16750,16793,16849,16907,16972,16981,17002,17052,17079,17083,17085,17150,17245,17248,17333,17336,17365,17385,17427,17481,17491,17620,17632,17683,17695,17702,17743,17824,17864,17877,17912,17980,17997,18020,18042,18052,18095,18147,18233,18247,18351,18453,18469,18655,18830,18873,18885,18909,18910,18911,18916,19009,19043,19051,19072,19253,19288,19342,19344,19368,19473,19495,19511,19578,19609,19617,19665,19716,19722,19729,19903,19973,20029,20067,20071,20135,20146,20164,20192,20204,20390,20515,20561,20564,20585,20620,20647,20659,20739,20818,20825,20873,20936,21011,21022,21035,21227,21242,21275,21381,21435,21473,21504,21590,21618,21654,21657,21736,21779,21786,21862,21877,22041,22168,22169,22207,22222,22224,22298,22356,22361,22364,22417,22493,22603,22620,22642,22832,22840,22864,22877,22959,22991,23073,23160,23459,23486,23489,23548,23554,23641,23658,23669,23670,23737,23740,23798,24020,24023,24053,24083,24221,24247,24307,24312,24327,24418,24478,24549,24699,24756,24938,25006,25030,25089,25096,25114,25115,25124,25171,25197,25220,25303,25406
